<?xml version="1.0" standalone="no"?>
<!DOCTYPE svg PUBLIC "-//W3C//DTD SVG 20010904//EN"
 "http://www.w3.org/TR/2001/REC-SVG-20010904/DTD/svg10.dtd">
<svg version="1.0" xmlns="http://www.w3.org/2000/svg"
 width="41.000000pt" height="32.000000pt" viewBox="0 0 41.000000 32.000000"
 preserveAspectRatio="xMidYMid meet">
<metadata>
Created by potrace 1.16, written by Peter Selinger 2001-2019
</metadata>
<g transform="translate(0.000000,32.000000) scale(0.018636,-0.014545)"
fill="#000000" stroke="none">
<path d="M710 1550 c0 -39 -1 -40 -36 -40 -27 0 -37 -5 -41 -19 -4 -14 -15
-21 -42 -23 l-36 -3 0 -380 0 -380 150 -6 c160 -6 252 -24 342 -66 l53 -24 52
24 c91 42 183 60 343 66 l150 6 0 380 0 380 -37 3 c-30 3 -38 7 -38 23 0 16
-7 19 -40 19 -37 0 -39 1 -35 28 6 51 -4 56 -80 42 -116 -22 -243 -98 -298
-180 l-17 -24 -17 24 c-53 78 -156 145 -270 174 -95 25 -103 23 -103 -24z
m740 -323 l0 -324 -53 -12 c-83 -18 -173 -66 -227 -120 l-50 -50 0 303 0 304
33 48 c44 64 123 119 217 149 41 13 76 24 78 25 1 0 2 -146 2 -323z m-577 283
c73 -27 149 -87 181 -143 l26 -44 0 -301 0 -301 -50 50 c-55 55 -145 102 -227
119 l-53 11 0 321 0 321 33 -6 c17 -3 58 -15 90 -27z m-165 -346 l2 -301 51
-7 c72 -10 150 -41 204 -82 25 -20 45 -38 43 -40 -2 -1 -26 8 -53 21 -59 28
-148 52 -227 61 l-58 7 0 324 c0 304 1 324 18 321 16 -3 17 -27 20 -304z m822
-17 l0 -323 -79 -11 c-44 -7 -121 -28 -173 -47 l-93 -35 35 31 c48 41 127 77
202 90 35 7 66 17 71 22 4 6 7 139 6 296 -1 335 -2 300 16 300 13 0 15 -43 15
-323z m-900 -42 l5 -319 87 -12 c89 -13 203 -42 195 -50 -2 -3 -24 0 -48 5
-24 5 -97 13 -161 17 l-118 7 0 332 c0 182 3 335 7 339 24 24 28 -17 33 -319z
m980 -13 l0 -338 -142 -12 c-79 -6 -154 -14 -168 -17 -18 -5 -21 -4 -10 3 18
12 191 51 240 54 l35 3 3 310 c1 171 4 316 7 323 2 6 11 12 20 12 13 0 15 -41
15 -338z"/>
</g>
</svg>
